^C:\USERS\100458273\DOCUMENTS\SCHOOL\INFR 2310\TUTORIAL\TUTORIAL 9\STARTER\INCLUDE\IMGUI\IMGUI.CPP
/c /I"C:\USERS\100458273\DOCUMENTS\SCHOOL\INFR 2310\TUTORIAL\TUTORIAL 9\STARTER\INCLUDE\\" /I"C:\USERS\100458273\DOCUMENTS\SCHOOL\INFR 2310\TUTORIAL\TUTORIAL 9\STARTER\INCLUDE\GLM\\" /ZI /nologo /W3 /WX- /diagnostics:classic /Od /D _DEBUG /D _CONSOLE /D _UNICODE /D UNICODE /D FREEGLUT_STATIC /Gm /EHsc /RTC1 /MDd /GS /fp:precise /Zc:wchar_t /Zc:forScope /Zc:inline /Fo"X64\DEBUG\\" /Fd"X64\DEBUG\VC141.PDB" /Gd /TP C:\USERS\100458273\DOCUMENTS\SCHOOL\INFR 2310\TUTORIAL\TUTORIAL 9\STARTER\INCLUDE\IMGUI\IMGUI.CPP
^C:\USERS\100458273\DOCUMENTS\SCHOOL\INFR 2310\TUTORIAL\TUTORIAL 9\STARTER\INCLUDE\IMGUI\IMGUI_DEMO.CPP
/c /I"C:\USERS\100458273\DOCUMENTS\SCHOOL\INFR 2310\TUTORIAL\TUTORIAL 9\STARTER\INCLUDE\\" /I"C:\USERS\100458273\DOCUMENTS\SCHOOL\INFR 2310\TUTORIAL\TUTORIAL 9\STARTER\INCLUDE\GLM\\" /ZI /nologo /W3 /WX- /diagnostics:classic /Od /D _DEBUG /D _CONSOLE /D _UNICODE /D UNICODE /D FREEGLUT_STATIC /Gm /EHsc /RTC1 /MDd /GS /fp:precise /Zc:wchar_t /Zc:forScope /Zc:inline /Fo"X64\DEBUG\\" /Fd"X64\DEBUG\VC141.PDB" /Gd /TP C:\USERS\100458273\DOCUMENTS\SCHOOL\INFR 2310\TUTORIAL\TUTORIAL 9\STARTER\INCLUDE\IMGUI\IMGUI_DEMO.CPP
^C:\USERS\100458273\DOCUMENTS\SCHOOL\INFR 2310\TUTORIAL\TUTORIAL 9\STARTER\INCLUDE\IMGUI\IMGUI_DRAW.CPP
/c /I"C:\USERS\100458273\DOCUMENTS\SCHOOL\INFR 2310\TUTORIAL\TUTORIAL 9\STARTER\INCLUDE\\" /I"C:\USERS\100458273\DOCUMENTS\SCHOOL\INFR 2310\TUTORIAL\TUTORIAL 9\STARTER\INCLUDE\GLM\\" /ZI /nologo /W3 /WX- /diagnostics:classic /Od /D _DEBUG /D _CONSOLE /D _UNICODE /D UNICODE /D FREEGLUT_STATIC /Gm /EHsc /RTC1 /MDd /GS /fp:precise /Zc:wchar_t /Zc:forScope /Zc:inline /Fo"X64\DEBUG\\" /Fd"X64\DEBUG\VC141.PDB" /Gd /TP C:\USERS\100458273\DOCUMENTS\SCHOOL\INFR 2310\TUTORIAL\TUTORIAL 9\STARTER\INCLUDE\IMGUI\IMGUI_DRAW.CPP
^C:\USERS\100458273\DOCUMENTS\SCHOOL\INFR 2310\TUTORIAL\TUTORIAL 9\STARTER\INCLUDE\IMGUI\IMGUI_IMPL.CPP
/c /I"C:\USERS\100458273\DOCUMENTS\SCHOOL\INFR 2310\TUTORIAL\TUTORIAL 9\STARTER\INCLUDE\\" /I"C:\USERS\100458273\DOCUMENTS\SCHOOL\INFR 2310\TUTORIAL\TUTORIAL 9\STARTER\INCLUDE\GLM\\" /ZI /nologo /W3 /WX- /diagnostics:classic /Od /D _DEBUG /D _CONSOLE /D _UNICODE /D UNICODE /D FREEGLUT_STATIC /Gm /EHsc /RTC1 /MDd /GS /fp:precise /Zc:wchar_t /Zc:forScope /Zc:inline /Fo"X64\DEBUG\\" /Fd"X64\DEBUG\VC141.PDB" /Gd /TP C:\USERS\100458273\DOCUMENTS\SCHOOL\INFR 2310\TUTORIAL\TUTORIAL 9\STARTER\INCLUDE\IMGUI\IMGUI_IMPL.CPP
^C:\USERS\100458273\DOCUMENTS\SCHOOL\INFR 2310\TUTORIAL\TUTORIAL 9\STARTER\INCLUDE\SKINNEDGAMEOBJECT.CPP
/c /I"C:\USERS\100458273\DOCUMENTS\SCHOOL\INFR 2310\TUTORIAL\TUTORIAL 9\STARTER\INCLUDE\\" /I"C:\USERS\100458273\DOCUMENTS\SCHOOL\INFR 2310\TUTORIAL\TUTORIAL 9\STARTER\INCLUDE\GLM\\" /ZI /nologo /W3 /WX- /diagnostics:classic /Od /D _DEBUG /D _CONSOLE /D _UNICODE /D UNICODE /D FREEGLUT_STATIC /Gm /EHsc /RTC1 /MDd /GS /fp:precise /Zc:wchar_t /Zc:forScope /Zc:inline /Fo"X64\DEBUG\\" /Fd"X64\DEBUG\VC141.PDB" /Gd /TP C:\USERS\100458273\DOCUMENTS\SCHOOL\INFR 2310\TUTORIAL\TUTORIAL 9\STARTER\INCLUDE\SKINNEDGAMEOBJECT.CPP
^C:\USERS\100458273\DOCUMENTS\SCHOOL\INFR 2310\TUTORIAL\TUTORIAL 9\STARTER\INCLUDE\TINYXML2\TINYXML2.CPP
/c /I"C:\USERS\100458273\DOCUMENTS\SCHOOL\INFR 2310\TUTORIAL\TUTORIAL 9\STARTER\INCLUDE\\" /I"C:\USERS\100458273\DOCUMENTS\SCHOOL\INFR 2310\TUTORIAL\TUTORIAL 9\STARTER\INCLUDE\GLM\\" /ZI /nologo /W3 /WX- /diagnostics:classic /Od /D _DEBUG /D _CONSOLE /D _UNICODE /D UNICODE /D FREEGLUT_STATIC /Gm /EHsc /RTC1 /MDd /GS /fp:precise /Zc:wchar_t /Zc:forScope /Zc:inline /Fo"X64\DEBUG\\" /Fd"X64\DEBUG\VC141.PDB" /Gd /TP C:\USERS\100458273\DOCUMENTS\SCHOOL\INFR 2310\TUTORIAL\TUTORIAL 9\STARTER\INCLUDE\TINYXML2\TINYXML2.CPP
^C:\USERS\100458273\DOCUMENTS\SCHOOL\INFR 2310\TUTORIAL\TUTORIAL 9\STARTER\SRC\GAMEOBJECT.CPP
/c /I"C:\USERS\100458273\DOCUMENTS\SCHOOL\INFR 2310\TUTORIAL\TUTORIAL 9\STARTER\INCLUDE\\" /I"C:\USERS\100458273\DOCUMENTS\SCHOOL\INFR 2310\TUTORIAL\TUTORIAL 9\STARTER\INCLUDE\GLM\\" /ZI /nologo /W3 /WX- /diagnostics:classic /Od /D _DEBUG /D _CONSOLE /D _UNICODE /D UNICODE /D FREEGLUT_STATIC /Gm /EHsc /RTC1 /MDd /GS /fp:precise /Zc:wchar_t /Zc:forScope /Zc:inline /Fo"X64\DEBUG\\" /Fd"X64\DEBUG\VC141.PDB" /Gd /TP C:\USERS\100458273\DOCUMENTS\SCHOOL\INFR 2310\TUTORIAL\TUTORIAL 9\STARTER\SRC\GAMEOBJECT.CPP
^C:\USERS\100458273\DOCUMENTS\SCHOOL\INFR 2310\TUTORIAL\TUTORIAL 9\STARTER\SRC\GUIFUNCS.CPP
/c /I"C:\USERS\100458273\DOCUMENTS\SCHOOL\INFR 2310\TUTORIAL\TUTORIAL 9\STARTER\INCLUDE\\" /I"C:\USERS\100458273\DOCUMENTS\SCHOOL\INFR 2310\TUTORIAL\TUTORIAL 9\STARTER\INCLUDE\GLM\\" /ZI /nologo /W3 /WX- /diagnostics:classic /Od /D _DEBUG /D _CONSOLE /D _UNICODE /D UNICODE /D FREEGLUT_STATIC /Gm /EHsc /RTC1 /MDd /GS /fp:precise /Zc:wchar_t /Zc:forScope /Zc:inline /Fo"X64\DEBUG\\" /Fd"X64\DEBUG\VC141.PDB" /Gd /TP C:\USERS\100458273\DOCUMENTS\SCHOOL\INFR 2310\TUTORIAL\TUTORIAL 9\STARTER\SRC\GUIFUNCS.CPP
^C:\USERS\100458273\DOCUMENTS\SCHOOL\INFR 2310\TUTORIAL\TUTORIAL 9\STARTER\SRC\HTRLOADER.CPP
/c /I"C:\USERS\100458273\DOCUMENTS\SCHOOL\INFR 2310\TUTORIAL\TUTORIAL 9\STARTER\INCLUDE\\" /I"C:\USERS\100458273\DOCUMENTS\SCHOOL\INFR 2310\TUTORIAL\TUTORIAL 9\STARTER\INCLUDE\GLM\\" /ZI /nologo /W3 /WX- /diagnostics:classic /Od /D _DEBUG /D _CONSOLE /D _UNICODE /D UNICODE /D FREEGLUT_STATIC /Gm /EHsc /RTC1 /MDd /GS /fp:precise /Zc:wchar_t /Zc:forScope /Zc:inline /Fo"X64\DEBUG\\" /Fd"X64\DEBUG\VC141.PDB" /Gd /TP C:\USERS\100458273\DOCUMENTS\SCHOOL\INFR 2310\TUTORIAL\TUTORIAL 9\STARTER\SRC\HTRLOADER.CPP
^C:\USERS\100458273\DOCUMENTS\SCHOOL\INFR 2310\TUTORIAL\TUTORIAL 9\STARTER\SRC\MAIN.CPP
/c /I"C:\USERS\100458273\DOCUMENTS\SCHOOL\INFR 2310\TUTORIAL\TUTORIAL 9\STARTER\INCLUDE\\" /I"C:\USERS\100458273\DOCUMENTS\SCHOOL\INFR 2310\TUTORIAL\TUTORIAL 9\STARTER\INCLUDE\GLM\\" /ZI /nologo /W3 /WX- /diagnostics:classic /Od /D _DEBUG /D _CONSOLE /D _UNICODE /D UNICODE /D FREEGLUT_STATIC /Gm /EHsc /RTC1 /MDd /GS /fp:precise /Zc:wchar_t /Zc:forScope /Zc:inline /Fo"X64\DEBUG\\" /Fd"X64\DEBUG\VC141.PDB" /Gd /TP C:\USERS\100458273\DOCUMENTS\SCHOOL\INFR 2310\TUTORIAL\TUTORIAL 9\STARTER\SRC\MAIN.CPP
^C:\USERS\100458273\DOCUMENTS\SCHOOL\INFR 2310\TUTORIAL\TUTORIAL 9\STARTER\SRC\PARTICLEEMITTER.CPP
/c /I"C:\USERS\100458273\DOCUMENTS\SCHOOL\INFR 2310\TUTORIAL\TUTORIAL 9\STARTER\INCLUDE\\" /I"C:\USERS\100458273\DOCUMENTS\SCHOOL\INFR 2310\TUTORIAL\TUTORIAL 9\STARTER\INCLUDE\GLM\\" /ZI /nologo /W3 /WX- /diagnostics:classic /Od /D _DEBUG /D _CONSOLE /D _UNICODE /D UNICODE /D FREEGLUT_STATIC /Gm /EHsc /RTC1 /MDd /GS /fp:precise /Zc:wchar_t /Zc:forScope /Zc:inline /Fo"X64\DEBUG\\" /Fd"X64\DEBUG\VC141.PDB" /Gd /TP C:\USERS\100458273\DOCUMENTS\SCHOOL\INFR 2310\TUTORIAL\TUTORIAL 9\STARTER\SRC\PARTICLEEMITTER.CPP
^C:\USERS\100458273\DOCUMENTS\SCHOOL\INFR 2310\TUTORIAL\TUTORIAL 9\STARTER\SRC\POINTHANDLE.CPP
/c /I"C:\USERS\100458273\DOCUMENTS\SCHOOL\INFR 2310\TUTORIAL\TUTORIAL 9\STARTER\INCLUDE\\" /I"C:\USERS\100458273\DOCUMENTS\SCHOOL\INFR 2310\TUTORIAL\TUTORIAL 9\STARTER\INCLUDE\GLM\\" /ZI /nologo /W3 /WX- /diagnostics:classic /Od /D _DEBUG /D _CONSOLE /D _UNICODE /D UNICODE /D FREEGLUT_STATIC /Gm /EHsc /RTC1 /MDd /GS /fp:precise /Zc:wchar_t /Zc:forScope /Zc:inline /Fo"X64\DEBUG\\" /Fd"X64\DEBUG\VC141.PDB" /Gd /TP C:\USERS\100458273\DOCUMENTS\SCHOOL\INFR 2310\TUTORIAL\TUTORIAL 9\STARTER\SRC\POINTHANDLE.CPP
^C:\USERS\100458273\DOCUMENTS\SCHOOL\INFR 2310\TUTORIAL\TUTORIAL 9\STARTER\SRC\TTK\GRAPHICSUTILS.CPP
/c /I"C:\USERS\100458273\DOCUMENTS\SCHOOL\INFR 2310\TUTORIAL\TUTORIAL 9\STARTER\INCLUDE\\" /I"C:\USERS\100458273\DOCUMENTS\SCHOOL\INFR 2310\TUTORIAL\TUTORIAL 9\STARTER\INCLUDE\GLM\\" /ZI /nologo /W3 /WX- /diagnostics:classic /Od /D _DEBUG /D _CONSOLE /D _UNICODE /D UNICODE /D FREEGLUT_STATIC /Gm /EHsc /RTC1 /MDd /GS /fp:precise /Zc:wchar_t /Zc:forScope /Zc:inline /Fo"X64\DEBUG\\" /Fd"X64\DEBUG\VC141.PDB" /Gd /TP C:\USERS\100458273\DOCUMENTS\SCHOOL\INFR 2310\TUTORIAL\TUTORIAL 9\STARTER\SRC\TTK\GRAPHICSUTILS.CPP
^C:\USERS\100458273\DOCUMENTS\SCHOOL\INFR 2310\TUTORIAL\TUTORIAL 9\STARTER\SRC\TTK\MESHBASE.CPP
/c /I"C:\USERS\100458273\DOCUMENTS\SCHOOL\INFR 2310\TUTORIAL\TUTORIAL 9\STARTER\INCLUDE\\" /I"C:\USERS\100458273\DOCUMENTS\SCHOOL\INFR 2310\TUTORIAL\TUTORIAL 9\STARTER\INCLUDE\GLM\\" /ZI /nologo /W3 /WX- /diagnostics:classic /Od /D _DEBUG /D _CONSOLE /D _UNICODE /D UNICODE /D FREEGLUT_STATIC /Gm /EHsc /RTC1 /MDd /GS /fp:precise /Zc:wchar_t /Zc:forScope /Zc:inline /Fo"X64\DEBUG\\" /Fd"X64\DEBUG\VC141.PDB" /Gd /TP C:\USERS\100458273\DOCUMENTS\SCHOOL\INFR 2310\TUTORIAL\TUTORIAL 9\STARTER\SRC\TTK\MESHBASE.CPP
^C:\USERS\100458273\DOCUMENTS\SCHOOL\INFR 2310\TUTORIAL\TUTORIAL 9\STARTER\SRC\TTK\OBJMESH.CPP
/c /I"C:\USERS\100458273\DOCUMENTS\SCHOOL\INFR 2310\TUTORIAL\TUTORIAL 9\STARTER\INCLUDE\\" /I"C:\USERS\100458273\DOCUMENTS\SCHOOL\INFR 2310\TUTORIAL\TUTORIAL 9\STARTER\INCLUDE\GLM\\" /ZI /nologo /W3 /WX- /diagnostics:classic /Od /D _DEBUG /D _CONSOLE /D _UNICODE /D UNICODE /D FREEGLUT_STATIC /Gm /EHsc /RTC1 /MDd /GS /fp:precise /Zc:wchar_t /Zc:forScope /Zc:inline /Fo"X64\DEBUG\\" /Fd"X64\DEBUG\VC141.PDB" /Gd /TP C:\USERS\100458273\DOCUMENTS\SCHOOL\INFR 2310\TUTORIAL\TUTORIAL 9\STARTER\SRC\TTK\OBJMESH.CPP
^C:\USERS\100458273\DOCUMENTS\SCHOOL\INFR 2310\TUTORIAL\TUTORIAL 9\STARTER\SRC\TTK\QUADMESH.CPP
/c /I"C:\USERS\100458273\DOCUMENTS\SCHOOL\INFR 2310\TUTORIAL\TUTORIAL 9\STARTER\INCLUDE\\" /I"C:\USERS\100458273\DOCUMENTS\SCHOOL\INFR 2310\TUTORIAL\TUTORIAL 9\STARTER\INCLUDE\GLM\\" /ZI /nologo /W3 /WX- /diagnostics:classic /Od /D _DEBUG /D _CONSOLE /D _UNICODE /D UNICODE /D FREEGLUT_STATIC /Gm /EHsc /RTC1 /MDd /GS /fp:precise /Zc:wchar_t /Zc:forScope /Zc:inline /Fo"X64\DEBUG\\" /Fd"X64\DEBUG\VC141.PDB" /Gd /TP C:\USERS\100458273\DOCUMENTS\SCHOOL\INFR 2310\TUTORIAL\TUTORIAL 9\STARTER\SRC\TTK\QUADMESH.CPP
^C:\USERS\100458273\DOCUMENTS\SCHOOL\INFR 2310\TUTORIAL\TUTORIAL 9\STARTER\SRC\TTK\TEXTURE2D.CPP
/c /I"C:\USERS\100458273\DOCUMENTS\SCHOOL\INFR 2310\TUTORIAL\TUTORIAL 9\STARTER\INCLUDE\\" /I"C:\USERS\100458273\DOCUMENTS\SCHOOL\INFR 2310\TUTORIAL\TUTORIAL 9\STARTER\INCLUDE\GLM\\" /ZI /nologo /W3 /WX- /diagnostics:classic /Od /D _DEBUG /D _CONSOLE /D _UNICODE /D UNICODE /D FREEGLUT_STATIC /Gm /EHsc /RTC1 /MDd /GS /fp:precise /Zc:wchar_t /Zc:forScope /Zc:inline /Fo"X64\DEBUG\\" /Fd"X64\DEBUG\VC141.PDB" /Gd /TP C:\USERS\100458273\DOCUMENTS\SCHOOL\INFR 2310\TUTORIAL\TUTORIAL 9\STARTER\SRC\TTK\TEXTURE2D.CPP
^C:\USERS\100458273\DOCUMENTS\ANIMATIONASSIGNMENT\TUTORIAL 9\STARTER\INCLUDE\IMGUI\IMGUI.CPP
/c /I"C:\USERS\100458273\DOCUMENTS\ANIMATIONASSIGNMENT\TUTORIAL 9\STARTER\INCLUDE\\" /I"C:\USERS\100458273\DOCUMENTS\ANIMATIONASSIGNMENT\TUTORIAL 9\STARTER\INCLUDE\GLM\\" /ZI /nologo /W3 /WX- /diagnostics:classic /Od /D _DEBUG /D _CONSOLE /D _UNICODE /D UNICODE /D FREEGLUT_STATIC /Gm /EHsc /RTC1 /MDd /GS /fp:precise /Zc:wchar_t /Zc:forScope /Zc:inline /Fo"X64\DEBUG\\" /Fd"X64\DEBUG\VC141.PDB" /Gd /TP C:\USERS\100458273\DOCUMENTS\ANIMATIONASSIGNMENT\TUTORIAL 9\STARTER\INCLUDE\IMGUI\IMGUI.CPP
^C:\USERS\100458273\DOCUMENTS\ANIMATIONASSIGNMENT\TUTORIAL 9\STARTER\INCLUDE\IMGUI\IMGUI_DEMO.CPP
/c /I"C:\USERS\100458273\DOCUMENTS\ANIMATIONASSIGNMENT\TUTORIAL 9\STARTER\INCLUDE\\" /I"C:\USERS\100458273\DOCUMENTS\ANIMATIONASSIGNMENT\TUTORIAL 9\STARTER\INCLUDE\GLM\\" /ZI /nologo /W3 /WX- /diagnostics:classic /Od /D _DEBUG /D _CONSOLE /D _UNICODE /D UNICODE /D FREEGLUT_STATIC /Gm /EHsc /RTC1 /MDd /GS /fp:precise /Zc:wchar_t /Zc:forScope /Zc:inline /Fo"X64\DEBUG\\" /Fd"X64\DEBUG\VC141.PDB" /Gd /TP C:\USERS\100458273\DOCUMENTS\ANIMATIONASSIGNMENT\TUTORIAL 9\STARTER\INCLUDE\IMGUI\IMGUI_DEMO.CPP
^C:\USERS\100458273\DOCUMENTS\ANIMATIONASSIGNMENT\TUTORIAL 9\STARTER\INCLUDE\IMGUI\IMGUI_DRAW.CPP
/c /I"C:\USERS\100458273\DOCUMENTS\ANIMATIONASSIGNMENT\TUTORIAL 9\STARTER\INCLUDE\\" /I"C:\USERS\100458273\DOCUMENTS\ANIMATIONASSIGNMENT\TUTORIAL 9\STARTER\INCLUDE\GLM\\" /ZI /nologo /W3 /WX- /diagnostics:classic /Od /D _DEBUG /D _CONSOLE /D _UNICODE /D UNICODE /D FREEGLUT_STATIC /Gm /EHsc /RTC1 /MDd /GS /fp:precise /Zc:wchar_t /Zc:forScope /Zc:inline /Fo"X64\DEBUG\\" /Fd"X64\DEBUG\VC141.PDB" /Gd /TP C:\USERS\100458273\DOCUMENTS\ANIMATIONASSIGNMENT\TUTORIAL 9\STARTER\INCLUDE\IMGUI\IMGUI_DRAW.CPP
^C:\USERS\100458273\DOCUMENTS\ANIMATIONASSIGNMENT\TUTORIAL 9\STARTER\INCLUDE\IMGUI\IMGUI_IMPL.CPP
/c /I"C:\USERS\100458273\DOCUMENTS\ANIMATIONASSIGNMENT\TUTORIAL 9\STARTER\INCLUDE\\" /I"C:\USERS\100458273\DOCUMENTS\ANIMATIONASSIGNMENT\TUTORIAL 9\STARTER\INCLUDE\GLM\\" /ZI /nologo /W3 /WX- /diagnostics:classic /Od /D _DEBUG /D _CONSOLE /D _UNICODE /D UNICODE /D FREEGLUT_STATIC /Gm /EHsc /RTC1 /MDd /GS /fp:precise /Zc:wchar_t /Zc:forScope /Zc:inline /Fo"X64\DEBUG\\" /Fd"X64\DEBUG\VC141.PDB" /Gd /TP C:\USERS\100458273\DOCUMENTS\ANIMATIONASSIGNMENT\TUTORIAL 9\STARTER\INCLUDE\IMGUI\IMGUI_IMPL.CPP
^C:\USERS\100458273\DOCUMENTS\ANIMATIONASSIGNMENT\TUTORIAL 9\STARTER\INCLUDE\SKINNEDGAMEOBJECT.CPP
/c /I"C:\USERS\100458273\DOCUMENTS\ANIMATIONASSIGNMENT\TUTORIAL 9\STARTER\INCLUDE\\" /I"C:\USERS\100458273\DOCUMENTS\ANIMATIONASSIGNMENT\TUTORIAL 9\STARTER\INCLUDE\GLM\\" /ZI /nologo /W3 /WX- /diagnostics:classic /Od /D _DEBUG /D _CONSOLE /D _UNICODE /D UNICODE /D FREEGLUT_STATIC /Gm /EHsc /RTC1 /MDd /GS /fp:precise /Zc:wchar_t /Zc:forScope /Zc:inline /Fo"X64\DEBUG\\" /Fd"X64\DEBUG\VC141.PDB" /Gd /TP C:\USERS\100458273\DOCUMENTS\ANIMATIONASSIGNMENT\TUTORIAL 9\STARTER\INCLUDE\SKINNEDGAMEOBJECT.CPP
^C:\USERS\100458273\DOCUMENTS\ANIMATIONASSIGNMENT\TUTORIAL 9\STARTER\INCLUDE\TINYXML2\TINYXML2.CPP
/c /I"C:\USERS\100458273\DOCUMENTS\ANIMATIONASSIGNMENT\TUTORIAL 9\STARTER\INCLUDE\\" /I"C:\USERS\100458273\DOCUMENTS\ANIMATIONASSIGNMENT\TUTORIAL 9\STARTER\INCLUDE\GLM\\" /ZI /nologo /W3 /WX- /diagnostics:classic /Od /D _DEBUG /D _CONSOLE /D _UNICODE /D UNICODE /D FREEGLUT_STATIC /Gm /EHsc /RTC1 /MDd /GS /fp:precise /Zc:wchar_t /Zc:forScope /Zc:inline /Fo"X64\DEBUG\\" /Fd"X64\DEBUG\VC141.PDB" /Gd /TP C:\USERS\100458273\DOCUMENTS\ANIMATIONASSIGNMENT\TUTORIAL 9\STARTER\INCLUDE\TINYXML2\TINYXML2.CPP
^C:\USERS\100458273\DOCUMENTS\ANIMATIONASSIGNMENT\TUTORIAL 9\STARTER\SRC\GAMEOBJECT.CPP
/c /I"C:\USERS\100458273\DOCUMENTS\ANIMATIONASSIGNMENT\TUTORIAL 9\STARTER\INCLUDE\\" /I"C:\USERS\100458273\DOCUMENTS\ANIMATIONASSIGNMENT\TUTORIAL 9\STARTER\INCLUDE\GLM\\" /ZI /nologo /W3 /WX- /diagnostics:classic /Od /D _DEBUG /D _CONSOLE /D _UNICODE /D UNICODE /D FREEGLUT_STATIC /Gm /EHsc /RTC1 /MDd /GS /fp:precise /Zc:wchar_t /Zc:forScope /Zc:inline /Fo"X64\DEBUG\\" /Fd"X64\DEBUG\VC141.PDB" /Gd /TP C:\USERS\100458273\DOCUMENTS\ANIMATIONASSIGNMENT\TUTORIAL 9\STARTER\SRC\GAMEOBJECT.CPP
^C:\USERS\100458273\DOCUMENTS\ANIMATIONASSIGNMENT\TUTORIAL 9\STARTER\SRC\GUIFUNCS.CPP
/c /I"C:\USERS\100458273\DOCUMENTS\ANIMATIONASSIGNMENT\TUTORIAL 9\STARTER\INCLUDE\\" /I"C:\USERS\100458273\DOCUMENTS\ANIMATIONASSIGNMENT\TUTORIAL 9\STARTER\INCLUDE\GLM\\" /ZI /nologo /W3 /WX- /diagnostics:classic /Od /D _DEBUG /D _CONSOLE /D _UNICODE /D UNICODE /D FREEGLUT_STATIC /Gm /EHsc /RTC1 /MDd /GS /fp:precise /Zc:wchar_t /Zc:forScope /Zc:inline /Fo"X64\DEBUG\\" /Fd"X64\DEBUG\VC141.PDB" /Gd /TP C:\USERS\100458273\DOCUMENTS\ANIMATIONASSIGNMENT\TUTORIAL 9\STARTER\SRC\GUIFUNCS.CPP
^C:\USERS\100458273\DOCUMENTS\ANIMATIONASSIGNMENT\TUTORIAL 9\STARTER\SRC\HTRLOADER.CPP
/c /I"C:\USERS\100458273\DOCUMENTS\ANIMATIONASSIGNMENT\TUTORIAL 9\STARTER\INCLUDE\\" /I"C:\USERS\100458273\DOCUMENTS\ANIMATIONASSIGNMENT\TUTORIAL 9\STARTER\INCLUDE\GLM\\" /ZI /nologo /W3 /WX- /diagnostics:classic /Od /D _DEBUG /D _CONSOLE /D _UNICODE /D UNICODE /D FREEGLUT_STATIC /Gm /EHsc /RTC1 /MDd /GS /fp:precise /Zc:wchar_t /Zc:forScope /Zc:inline /Fo"X64\DEBUG\\" /Fd"X64\DEBUG\VC141.PDB" /Gd /TP C:\USERS\100458273\DOCUMENTS\ANIMATIONASSIGNMENT\TUTORIAL 9\STARTER\SRC\HTRLOADER.CPP
^C:\USERS\100458273\DOCUMENTS\ANIMATIONASSIGNMENT\TUTORIAL 9\STARTER\SRC\MAIN.CPP
/c /I"C:\USERS\100458273\DOCUMENTS\ANIMATIONASSIGNMENT\TUTORIAL 9\STARTER\INCLUDE\\" /I"C:\USERS\100458273\DOCUMENTS\ANIMATIONASSIGNMENT\TUTORIAL 9\STARTER\INCLUDE\GLM\\" /ZI /nologo /W3 /WX- /diagnostics:classic /Od /D _DEBUG /D _CONSOLE /D _UNICODE /D UNICODE /D FREEGLUT_STATIC /Gm /EHsc /RTC1 /MDd /GS /fp:precise /Zc:wchar_t /Zc:forScope /Zc:inline /Fo"X64\DEBUG\\" /Fd"X64\DEBUG\VC141.PDB" /Gd /TP C:\USERS\100458273\DOCUMENTS\ANIMATIONASSIGNMENT\TUTORIAL 9\STARTER\SRC\MAIN.CPP
^C:\USERS\100458273\DOCUMENTS\ANIMATIONASSIGNMENT\TUTORIAL 9\STARTER\SRC\PARTICLEEMITTER.CPP
/c /I"C:\USERS\100458273\DOCUMENTS\ANIMATIONASSIGNMENT\TUTORIAL 9\STARTER\INCLUDE\\" /I"C:\USERS\100458273\DOCUMENTS\ANIMATIONASSIGNMENT\TUTORIAL 9\STARTER\INCLUDE\GLM\\" /ZI /nologo /W3 /WX- /diagnostics:classic /Od /D _DEBUG /D _CONSOLE /D _UNICODE /D UNICODE /D FREEGLUT_STATIC /Gm /EHsc /RTC1 /MDd /GS /fp:precise /Zc:wchar_t /Zc:forScope /Zc:inline /Fo"X64\DEBUG\\" /Fd"X64\DEBUG\VC141.PDB" /Gd /TP C:\USERS\100458273\DOCUMENTS\ANIMATIONASSIGNMENT\TUTORIAL 9\STARTER\SRC\PARTICLEEMITTER.CPP
^C:\USERS\100458273\DOCUMENTS\ANIMATIONASSIGNMENT\TUTORIAL 9\STARTER\SRC\POINTHANDLE.CPP
/c /I"C:\USERS\100458273\DOCUMENTS\ANIMATIONASSIGNMENT\TUTORIAL 9\STARTER\INCLUDE\\" /I"C:\USERS\100458273\DOCUMENTS\ANIMATIONASSIGNMENT\TUTORIAL 9\STARTER\INCLUDE\GLM\\" /ZI /nologo /W3 /WX- /diagnostics:classic /Od /D _DEBUG /D _CONSOLE /D _UNICODE /D UNICODE /D FREEGLUT_STATIC /Gm /EHsc /RTC1 /MDd /GS /fp:precise /Zc:wchar_t /Zc:forScope /Zc:inline /Fo"X64\DEBUG\\" /Fd"X64\DEBUG\VC141.PDB" /Gd /TP C:\USERS\100458273\DOCUMENTS\ANIMATIONASSIGNMENT\TUTORIAL 9\STARTER\SRC\POINTHANDLE.CPP
^C:\USERS\100458273\DOCUMENTS\ANIMATIONASSIGNMENT\TUTORIAL 9\STARTER\SRC\TTK\GRAPHICSUTILS.CPP
/c /I"C:\USERS\100458273\DOCUMENTS\ANIMATIONASSIGNMENT\TUTORIAL 9\STARTER\INCLUDE\\" /I"C:\USERS\100458273\DOCUMENTS\ANIMATIONASSIGNMENT\TUTORIAL 9\STARTER\INCLUDE\GLM\\" /ZI /nologo /W3 /WX- /diagnostics:classic /Od /D _DEBUG /D _CONSOLE /D _UNICODE /D UNICODE /D FREEGLUT_STATIC /Gm /EHsc /RTC1 /MDd /GS /fp:precise /Zc:wchar_t /Zc:forScope /Zc:inline /Fo"X64\DEBUG\\" /Fd"X64\DEBUG\VC141.PDB" /Gd /TP C:\USERS\100458273\DOCUMENTS\ANIMATIONASSIGNMENT\TUTORIAL 9\STARTER\SRC\TTK\GRAPHICSUTILS.CPP
^C:\USERS\100458273\DOCUMENTS\ANIMATIONASSIGNMENT\TUTORIAL 9\STARTER\SRC\TTK\MESHBASE.CPP
/c /I"C:\USERS\100458273\DOCUMENTS\ANIMATIONASSIGNMENT\TUTORIAL 9\STARTER\INCLUDE\\" /I"C:\USERS\100458273\DOCUMENTS\ANIMATIONASSIGNMENT\TUTORIAL 9\STARTER\INCLUDE\GLM\\" /ZI /nologo /W3 /WX- /diagnostics:classic /Od /D _DEBUG /D _CONSOLE /D _UNICODE /D UNICODE /D FREEGLUT_STATIC /Gm /EHsc /RTC1 /MDd /GS /fp:precise /Zc:wchar_t /Zc:forScope /Zc:inline /Fo"X64\DEBUG\\" /Fd"X64\DEBUG\VC141.PDB" /Gd /TP C:\USERS\100458273\DOCUMENTS\ANIMATIONASSIGNMENT\TUTORIAL 9\STARTER\SRC\TTK\MESHBASE.CPP
^C:\USERS\100458273\DOCUMENTS\ANIMATIONASSIGNMENT\TUTORIAL 9\STARTER\SRC\TTK\OBJMESH.CPP
/c /I"C:\USERS\100458273\DOCUMENTS\ANIMATIONASSIGNMENT\TUTORIAL 9\STARTER\INCLUDE\\" /I"C:\USERS\100458273\DOCUMENTS\ANIMATIONASSIGNMENT\TUTORIAL 9\STARTER\INCLUDE\GLM\\" /ZI /nologo /W3 /WX- /diagnostics:classic /Od /D _DEBUG /D _CONSOLE /D _UNICODE /D UNICODE /D FREEGLUT_STATIC /Gm /EHsc /RTC1 /MDd /GS /fp:precise /Zc:wchar_t /Zc:forScope /Zc:inline /Fo"X64\DEBUG\\" /Fd"X64\DEBUG\VC141.PDB" /Gd /TP C:\USERS\100458273\DOCUMENTS\ANIMATIONASSIGNMENT\TUTORIAL 9\STARTER\SRC\TTK\OBJMESH.CPP
^C:\USERS\100458273\DOCUMENTS\ANIMATIONASSIGNMENT\TUTORIAL 9\STARTER\SRC\TTK\QUADMESH.CPP
/c /I"C:\USERS\100458273\DOCUMENTS\ANIMATIONASSIGNMENT\TUTORIAL 9\STARTER\INCLUDE\\" /I"C:\USERS\100458273\DOCUMENTS\ANIMATIONASSIGNMENT\TUTORIAL 9\STARTER\INCLUDE\GLM\\" /ZI /nologo /W3 /WX- /diagnostics:classic /Od /D _DEBUG /D _CONSOLE /D _UNICODE /D UNICODE /D FREEGLUT_STATIC /Gm /EHsc /RTC1 /MDd /GS /fp:precise /Zc:wchar_t /Zc:forScope /Zc:inline /Fo"X64\DEBUG\\" /Fd"X64\DEBUG\VC141.PDB" /Gd /TP C:\USERS\100458273\DOCUMENTS\ANIMATIONASSIGNMENT\TUTORIAL 9\STARTER\SRC\TTK\QUADMESH.CPP
^C:\USERS\100458273\DOCUMENTS\ANIMATIONASSIGNMENT\TUTORIAL 9\STARTER\SRC\TTK\TEXTURE2D.CPP
/c /I"C:\USERS\100458273\DOCUMENTS\ANIMATIONASSIGNMENT\TUTORIAL 9\STARTER\INCLUDE\\" /I"C:\USERS\100458273\DOCUMENTS\ANIMATIONASSIGNMENT\TUTORIAL 9\STARTER\INCLUDE\GLM\\" /ZI /nologo /W3 /WX- /diagnostics:classic /Od /D _DEBUG /D _CONSOLE /D _UNICODE /D UNICODE /D FREEGLUT_STATIC /Gm /EHsc /RTC1 /MDd /GS /fp:precise /Zc:wchar_t /Zc:forScope /Zc:inline /Fo"X64\DEBUG\\" /Fd"X64\DEBUG\VC141.PDB" /Gd /TP C:\USERS\100458273\DOCUMENTS\ANIMATIONASSIGNMENT\TUTORIAL 9\STARTER\SRC\TTK\TEXTURE2D.CPP
^C:\USERS\100458273\DOCUMENTS\ANIMATIONASSIGNMENT\TUTORIAL 9\STARTER\SRC\ANIMATIONMATH.CPP
/c /I"C:\USERS\100458273\DOCUMENTS\ANIMATIONASSIGNMENT\TUTORIAL 9\STARTER\INCLUDE\\" /I"C:\USERS\100458273\DOCUMENTS\ANIMATIONASSIGNMENT\TUTORIAL 9\STARTER\INCLUDE\GLM\\" /ZI /nologo /W3 /WX- /diagnostics:classic /Od /D _DEBUG /D _CONSOLE /D _UNICODE /D UNICODE /D FREEGLUT_STATIC /Gm /EHsc /RTC1 /MDd /GS /fp:precise /Zc:wchar_t /Zc:forScope /Zc:inline /Fo"X64\DEBUG\\" /Fd"X64\DEBUG\VC141.PDB" /Gd /TP C:\USERS\100458273\DOCUMENTS\ANIMATIONASSIGNMENT\TUTORIAL 9\STARTER\SRC\ANIMATIONMATH.CPP
