^C:\USERS\100458273\DOCUMENTS\SCHOOL\INFR 2310\TUTORIAL\TUTORIAL 9\STARTER\TUTORIAL 1\X64\DEBUG\GAMEOBJECT.OBJ|C:\USERS\100458273\DOCUMENTS\SCHOOL\INFR 2310\TUTORIAL\TUTORIAL 9\STARTER\TUTORIAL 1\X64\DEBUG\GRAPHICSUTILS.OBJ|C:\USERS\100458273\DOCUMENTS\SCHOOL\INFR 2310\TUTORIAL\TUTORIAL 9\STARTER\TUTORIAL 1\X64\DEBUG\GUIFUNCS.OBJ|C:\USERS\100458273\DOCUMENTS\SCHOOL\INFR 2310\TUTORIAL\TUTORIAL 9\STARTER\TUTORIAL 1\X64\DEBUG\HTRLOADER.OBJ|C:\USERS\100458273\DOCUMENTS\SCHOOL\INFR 2310\TUTORIAL\TUTORIAL 9\STARTER\TUTORIAL 1\X64\DEBUG\IMGUI.OBJ|C:\USERS\100458273\DOCUMENTS\SCHOOL\INFR 2310\TUTORIAL\TUTORIAL 9\STARTER\TUTORIAL 1\X64\DEBUG\IMGUI_DEMO.OBJ|C:\USERS\100458273\DOCUMENTS\SCHOOL\INFR 2310\TUTORIAL\TUTORIAL 9\STARTER\TUTORIAL 1\X64\DEBUG\IMGUI_DRAW.OBJ|C:\USERS\100458273\DOCUMENTS\SCHOOL\INFR 2310\TUTORIAL\TUTORIAL 9\STARTER\TUTORIAL 1\X64\DEBUG\IMGUI_IMPL.OBJ|C:\USERS\100458273\DOCUMENTS\SCHOOL\INFR 2310\TUTORIAL\TUTORIAL 9\STARTER\TUTORIAL 1\X64\DEBUG\MAIN.OBJ|C:\USERS\100458273\DOCUMENTS\SCHOOL\INFR 2310\TUTORIAL\TUTORIAL 9\STARTER\TUTORIAL 1\X64\DEBUG\MESHBASE.OBJ|C:\USERS\100458273\DOCUMENTS\SCHOOL\INFR 2310\TUTORIAL\TUTORIAL 9\STARTER\TUTORIAL 1\X64\DEBUG\OBJMESH.OBJ|C:\USERS\100458273\DOCUMENTS\SCHOOL\INFR 2310\TUTORIAL\TUTORIAL 9\STARTER\TUTORIAL 1\X64\DEBUG\PARTICLEEMITTER.OBJ|C:\USERS\100458273\DOCUMENTS\SCHOOL\INFR 2310\TUTORIAL\TUTORIAL 9\STARTER\TUTORIAL 1\X64\DEBUG\POINTHANDLE.OBJ|C:\USERS\100458273\DOCUMENTS\SCHOOL\INFR 2310\TUTORIAL\TUTORIAL 9\STARTER\TUTORIAL 1\X64\DEBUG\QUADMESH.OBJ|C:\USERS\100458273\DOCUMENTS\SCHOOL\INFR 2310\TUTORIAL\TUTORIAL 9\STARTER\TUTORIAL 1\X64\DEBUG\SKINNEDGAMEOBJECT.OBJ|C:\USERS\100458273\DOCUMENTS\SCHOOL\INFR 2310\TUTORIAL\TUTORIAL 9\STARTER\TUTORIAL 1\X64\DEBUG\TEXTURE2D.OBJ|C:\USERS\100458273\DOCUMENTS\SCHOOL\INFR 2310\TUTORIAL\TUTORIAL 9\STARTER\TUTORIAL 1\X64\DEBUG\TINYXML2.OBJ
C:\WINDOWS\GLOBALIZATION\SORTING\SORTDEFAULT.NLS
C:\USERS\100458273\DOCUMENTS\SCHOOL\INFR 2310\TUTORIAL\TUTORIAL 9\STARTER\LIB\X64\DEBUG\FREEGLUT_STATICD.LIB
C:\USERS\100458273\DOCUMENTS\SCHOOL\INFR 2310\TUTORIAL\TUTORIAL 9\STARTER\TUTORIAL 1\X64\DEBUG\IMGUI.OBJ
C:\USERS\100458273\DOCUMENTS\SCHOOL\INFR 2310\TUTORIAL\TUTORIAL 9\STARTER\TUTORIAL 1\X64\DEBUG\IMGUI_DEMO.OBJ
C:\USERS\100458273\DOCUMENTS\SCHOOL\INFR 2310\TUTORIAL\TUTORIAL 9\STARTER\TUTORIAL 1\X64\DEBUG\IMGUI_DRAW.OBJ
C:\USERS\100458273\DOCUMENTS\SCHOOL\INFR 2310\TUTORIAL\TUTORIAL 9\STARTER\TUTORIAL 1\X64\DEBUG\IMGUI_IMPL.OBJ
C:\USERS\100458273\DOCUMENTS\SCHOOL\INFR 2310\TUTORIAL\TUTORIAL 9\STARTER\TUTORIAL 1\X64\DEBUG\SKINNEDGAMEOBJECT.OBJ
C:\USERS\100458273\DOCUMENTS\SCHOOL\INFR 2310\TUTORIAL\TUTORIAL 9\STARTER\TUTORIAL 1\X64\DEBUG\TINYXML2.OBJ
C:\USERS\100458273\DOCUMENTS\SCHOOL\INFR 2310\TUTORIAL\TUTORIAL 9\STARTER\TUTORIAL 1\X64\DEBUG\GAMEOBJECT.OBJ
C:\USERS\100458273\DOCUMENTS\SCHOOL\INFR 2310\TUTORIAL\TUTORIAL 9\STARTER\TUTORIAL 1\X64\DEBUG\GUIFUNCS.OBJ
C:\USERS\100458273\DOCUMENTS\SCHOOL\INFR 2310\TUTORIAL\TUTORIAL 9\STARTER\TUTORIAL 1\X64\DEBUG\HTRLOADER.OBJ
C:\USERS\100458273\DOCUMENTS\SCHOOL\INFR 2310\TUTORIAL\TUTORIAL 9\STARTER\TUTORIAL 1\X64\DEBUG\MAIN.OBJ
C:\USERS\100458273\DOCUMENTS\SCHOOL\INFR 2310\TUTORIAL\TUTORIAL 9\STARTER\TUTORIAL 1\X64\DEBUG\PARTICLEEMITTER.OBJ
C:\USERS\100458273\DOCUMENTS\SCHOOL\INFR 2310\TUTORIAL\TUTORIAL 9\STARTER\TUTORIAL 1\X64\DEBUG\POINTHANDLE.OBJ
C:\USERS\100458273\DOCUMENTS\SCHOOL\INFR 2310\TUTORIAL\TUTORIAL 9\STARTER\TUTORIAL 1\X64\DEBUG\GRAPHICSUTILS.OBJ
C:\USERS\100458273\DOCUMENTS\SCHOOL\INFR 2310\TUTORIAL\TUTORIAL 9\STARTER\TUTORIAL 1\X64\DEBUG\MESHBASE.OBJ
C:\USERS\100458273\DOCUMENTS\SCHOOL\INFR 2310\TUTORIAL\TUTORIAL 9\STARTER\TUTORIAL 1\X64\DEBUG\OBJMESH.OBJ
C:\USERS\100458273\DOCUMENTS\SCHOOL\INFR 2310\TUTORIAL\TUTORIAL 9\STARTER\TUTORIAL 1\X64\DEBUG\QUADMESH.OBJ
C:\USERS\100458273\DOCUMENTS\SCHOOL\INFR 2310\TUTORIAL\TUTORIAL 9\STARTER\TUTORIAL 1\X64\DEBUG\TEXTURE2D.OBJ
C:\WINDOWS\SYSTEM32\TZRES.DLL
C:\PROGRAM FILES (X86)\WINDOWS KITS\10\LIB\10.0.15063.0\UM\X64\USER32.LIB
C:\PROGRAM FILES (X86)\WINDOWS KITS\10\LIB\10.0.15063.0\UM\X64\IMM32.LIB
C:\PROGRAM FILES (X86)\MICROSOFT VISUAL STUDIO\2017\PROFESSIONAL\VC\TOOLS\MSVC\14.11.25503\LIB\X64\MSVCRTD.LIB
C:\PROGRAM FILES (X86)\MICROSOFT VISUAL STUDIO\2017\PROFESSIONAL\VC\TOOLS\MSVC\14.11.25503\LIB\X64\OLDNAMES.LIB
C:\PROGRAM FILES (X86)\MICROSOFT VISUAL STUDIO\2017\PROFESSIONAL\VC\TOOLS\MSVC\14.11.25503\LIB\X64\MSVCPRTD.LIB
C:\PROGRAM FILES (X86)\WINDOWS KITS\10\LIB\10.0.15063.0\UM\X64\GLU32.LIB
C:\PROGRAM FILES (X86)\WINDOWS KITS\10\LIB\10.0.15063.0\UM\X64\OPENGL32.LIB
C:\PROGRAM FILES (X86)\WINDOWS KITS\10\LIB\10.0.15063.0\UM\X64\GDI32.LIB
C:\PROGRAM FILES (X86)\WINDOWS KITS\10\LIB\10.0.15063.0\UM\X64\WINMM.LIB
C:\USERS\100458273\DOCUMENTS\SCHOOL\INFR 2310\TUTORIAL\TUTORIAL 9\STARTER\LIB\X64\DEBUG\GLEW32S.LIB
C:\USERS\100458273\DOCUMENTS\SCHOOL\INFR 2310\TUTORIAL\TUTORIAL 9\STARTER\LIB\X64\DEBUG\FREEIMAGE.LIB
C:\PROGRAM FILES (X86)\WINDOWS KITS\10\LIB\10.0.15063.0\UM\X64\UUID.LIB
C:\PROGRAM FILES (X86)\WINDOWS KITS\10\LIB\10.0.15063.0\UM\X64\ADVAPI32.LIB
C:\PROGRAM FILES (X86)\WINDOWS KITS\10\LIB\10.0.15063.0\UM\X64\KERNEL32.LIB
C:\PROGRAM FILES (X86)\MICROSOFT VISUAL STUDIO\2017\PROFESSIONAL\VC\TOOLS\MSVC\14.11.25503\LIB\X64\LIBCMT.LIB
C:\PROGRAM FILES (X86)\MICROSOFT VISUAL STUDIO\2017\PROFESSIONAL\VC\TOOLS\MSVC\14.11.25503\LIB\X64\VCRUNTIMED.LIB
C:\PROGRAM FILES (X86)\WINDOWS KITS\10\LIB\10.0.15063.0\UCRT\X64\UCRTD.LIB
^C:\USERS\100458273\DOCUMENTS\ANIMATIONASSIGNMENT\TUTORIAL 9\STARTER\TUTORIAL 1\X64\DEBUG\ANIMATIONMATH.OBJ|C:\USERS\100458273\DOCUMENTS\ANIMATIONASSIGNMENT\TUTORIAL 9\STARTER\TUTORIAL 1\X64\DEBUG\GAMEOBJECT.OBJ|C:\USERS\100458273\DOCUMENTS\ANIMATIONASSIGNMENT\TUTORIAL 9\STARTER\TUTORIAL 1\X64\DEBUG\GRAPHICSUTILS.OBJ|C:\USERS\100458273\DOCUMENTS\ANIMATIONASSIGNMENT\TUTORIAL 9\STARTER\TUTORIAL 1\X64\DEBUG\GUIFUNCS.OBJ|C:\USERS\100458273\DOCUMENTS\ANIMATIONASSIGNMENT\TUTORIAL 9\STARTER\TUTORIAL 1\X64\DEBUG\HTRLOADER.OBJ|C:\USERS\100458273\DOCUMENTS\ANIMATIONASSIGNMENT\TUTORIAL 9\STARTER\TUTORIAL 1\X64\DEBUG\IMGUI.OBJ|C:\USERS\100458273\DOCUMENTS\ANIMATIONASSIGNMENT\TUTORIAL 9\STARTER\TUTORIAL 1\X64\DEBUG\IMGUI_DEMO.OBJ|C:\USERS\100458273\DOCUMENTS\ANIMATIONASSIGNMENT\TUTORIAL 9\STARTER\TUTORIAL 1\X64\DEBUG\IMGUI_DRAW.OBJ|C:\USERS\100458273\DOCUMENTS\ANIMATIONASSIGNMENT\TUTORIAL 9\STARTER\TUTORIAL 1\X64\DEBUG\IMGUI_IMPL.OBJ|C:\USERS\100458273\DOCUMENTS\ANIMATIONASSIGNMENT\TUTORIAL 9\STARTER\TUTORIAL 1\X64\DEBUG\MAIN.OBJ|C:\USERS\100458273\DOCUMENTS\ANIMATIONASSIGNMENT\TUTORIAL 9\STARTER\TUTORIAL 1\X64\DEBUG\MESHBASE.OBJ|C:\USERS\100458273\DOCUMENTS\ANIMATIONASSIGNMENT\TUTORIAL 9\STARTER\TUTORIAL 1\X64\DEBUG\OBJMESH.OBJ|C:\USERS\100458273\DOCUMENTS\ANIMATIONASSIGNMENT\TUTORIAL 9\STARTER\TUTORIAL 1\X64\DEBUG\PARTICLEEMITTER.OBJ|C:\USERS\100458273\DOCUMENTS\ANIMATIONASSIGNMENT\TUTORIAL 9\STARTER\TUTORIAL 1\X64\DEBUG\POINTHANDLE.OBJ|C:\USERS\100458273\DOCUMENTS\ANIMATIONASSIGNMENT\TUTORIAL 9\STARTER\TUTORIAL 1\X64\DEBUG\QUADMESH.OBJ|C:\USERS\100458273\DOCUMENTS\ANIMATIONASSIGNMENT\TUTORIAL 9\STARTER\TUTORIAL 1\X64\DEBUG\SKINNEDGAMEOBJECT.OBJ|C:\USERS\100458273\DOCUMENTS\ANIMATIONASSIGNMENT\TUTORIAL 9\STARTER\TUTORIAL 1\X64\DEBUG\TEXTURE2D.OBJ|C:\USERS\100458273\DOCUMENTS\ANIMATIONASSIGNMENT\TUTORIAL 9\STARTER\TUTORIAL 1\X64\DEBUG\TINYXML2.OBJ
C:\WINDOWS\GLOBALIZATION\SORTING\SORTDEFAULT.NLS
C:\USERS\100458273\DOCUMENTS\ANIMATIONASSIGNMENT\TUTORIAL 9\STARTER\LIB\X64\DEBUG\FREEGLUT_STATICD.LIB
C:\USERS\100458273\DOCUMENTS\ANIMATIONASSIGNMENT\TUTORIAL 9\STARTER\TUTORIAL 1\X64\DEBUG\IMGUI.OBJ
C:\USERS\100458273\DOCUMENTS\ANIMATIONASSIGNMENT\TUTORIAL 9\STARTER\TUTORIAL 1\X64\DEBUG\IMGUI_DEMO.OBJ
C:\USERS\100458273\DOCUMENTS\ANIMATIONASSIGNMENT\TUTORIAL 9\STARTER\TUTORIAL 1\X64\DEBUG\IMGUI_DRAW.OBJ
C:\USERS\100458273\DOCUMENTS\ANIMATIONASSIGNMENT\TUTORIAL 9\STARTER\TUTORIAL 1\X64\DEBUG\IMGUI_IMPL.OBJ
C:\USERS\100458273\DOCUMENTS\ANIMATIONASSIGNMENT\TUTORIAL 9\STARTER\TUTORIAL 1\X64\DEBUG\SKINNEDGAMEOBJECT.OBJ
C:\USERS\100458273\DOCUMENTS\ANIMATIONASSIGNMENT\TUTORIAL 9\STARTER\TUTORIAL 1\X64\DEBUG\TINYXML2.OBJ
C:\USERS\100458273\DOCUMENTS\ANIMATIONASSIGNMENT\TUTORIAL 9\STARTER\TUTORIAL 1\X64\DEBUG\ANIMATIONMATH.OBJ
C:\USERS\100458273\DOCUMENTS\ANIMATIONASSIGNMENT\TUTORIAL 9\STARTER\TUTORIAL 1\X64\DEBUG\GAMEOBJECT.OBJ
C:\USERS\100458273\DOCUMENTS\ANIMATIONASSIGNMENT\TUTORIAL 9\STARTER\TUTORIAL 1\X64\DEBUG\GUIFUNCS.OBJ
C:\USERS\100458273\DOCUMENTS\ANIMATIONASSIGNMENT\TUTORIAL 9\STARTER\TUTORIAL 1\X64\DEBUG\HTRLOADER.OBJ
C:\USERS\100458273\DOCUMENTS\ANIMATIONASSIGNMENT\TUTORIAL 9\STARTER\TUTORIAL 1\X64\DEBUG\MAIN.OBJ
C:\USERS\100458273\DOCUMENTS\ANIMATIONASSIGNMENT\TUTORIAL 9\STARTER\TUTORIAL 1\X64\DEBUG\PARTICLEEMITTER.OBJ
C:\USERS\100458273\DOCUMENTS\ANIMATIONASSIGNMENT\TUTORIAL 9\STARTER\TUTORIAL 1\X64\DEBUG\POINTHANDLE.OBJ
C:\USERS\100458273\DOCUMENTS\ANIMATIONASSIGNMENT\TUTORIAL 9\STARTER\TUTORIAL 1\X64\DEBUG\GRAPHICSUTILS.OBJ
C:\USERS\100458273\DOCUMENTS\ANIMATIONASSIGNMENT\TUTORIAL 9\STARTER\TUTORIAL 1\X64\DEBUG\MESHBASE.OBJ
C:\USERS\100458273\DOCUMENTS\ANIMATIONASSIGNMENT\TUTORIAL 9\STARTER\TUTORIAL 1\X64\DEBUG\OBJMESH.OBJ
C:\USERS\100458273\DOCUMENTS\ANIMATIONASSIGNMENT\TUTORIAL 9\STARTER\TUTORIAL 1\X64\DEBUG\QUADMESH.OBJ
C:\USERS\100458273\DOCUMENTS\ANIMATIONASSIGNMENT\TUTORIAL 9\STARTER\TUTORIAL 1\X64\DEBUG\TEXTURE2D.OBJ
C:\WINDOWS\SYSTEM32\TZRES.DLL
C:\PROGRAM FILES (X86)\WINDOWS KITS\10\LIB\10.0.15063.0\UM\X64\USER32.LIB
C:\PROGRAM FILES (X86)\WINDOWS KITS\10\LIB\10.0.15063.0\UM\X64\IMM32.LIB
C:\PROGRAM FILES (X86)\MICROSOFT VISUAL STUDIO\2017\PROFESSIONAL\VC\TOOLS\MSVC\14.11.25503\LIB\X64\MSVCRTD.LIB
C:\PROGRAM FILES (X86)\MICROSOFT VISUAL STUDIO\2017\PROFESSIONAL\VC\TOOLS\MSVC\14.11.25503\LIB\X64\OLDNAMES.LIB
C:\PROGRAM FILES (X86)\MICROSOFT VISUAL STUDIO\2017\PROFESSIONAL\VC\TOOLS\MSVC\14.11.25503\LIB\X64\MSVCPRTD.LIB
C:\PROGRAM FILES (X86)\WINDOWS KITS\10\LIB\10.0.15063.0\UM\X64\GLU32.LIB
C:\PROGRAM FILES (X86)\WINDOWS KITS\10\LIB\10.0.15063.0\UM\X64\OPENGL32.LIB
C:\PROGRAM FILES (X86)\WINDOWS KITS\10\LIB\10.0.15063.0\UM\X64\GDI32.LIB
C:\PROGRAM FILES (X86)\WINDOWS KITS\10\LIB\10.0.15063.0\UM\X64\WINMM.LIB
C:\USERS\100458273\DOCUMENTS\ANIMATIONASSIGNMENT\TUTORIAL 9\STARTER\LIB\X64\DEBUG\GLEW32S.LIB
C:\USERS\100458273\DOCUMENTS\ANIMATIONASSIGNMENT\TUTORIAL 9\STARTER\LIB\X64\DEBUG\FREEIMAGE.LIB
C:\PROGRAM FILES (X86)\WINDOWS KITS\10\LIB\10.0.15063.0\UM\X64\UUID.LIB
C:\PROGRAM FILES (X86)\WINDOWS KITS\10\LIB\10.0.15063.0\UM\X64\ADVAPI32.LIB
C:\PROGRAM FILES (X86)\WINDOWS KITS\10\LIB\10.0.15063.0\UM\X64\KERNEL32.LIB
C:\PROGRAM FILES (X86)\MICROSOFT VISUAL STUDIO\2017\PROFESSIONAL\VC\TOOLS\MSVC\14.11.25503\LIB\X64\LIBCMT.LIB
C:\PROGRAM FILES (X86)\MICROSOFT VISUAL STUDIO\2017\PROFESSIONAL\VC\TOOLS\MSVC\14.11.25503\LIB\X64\VCRUNTIMED.LIB
C:\PROGRAM FILES (X86)\WINDOWS KITS\10\LIB\10.0.15063.0\UCRT\X64\UCRTD.LIB
